<?xml version="1.0" encoding="UTF-8" standalone="no"?>
<!-- Created with Inkscape (http://www.inkscape.org/) -->

<svg
   xmlns:dc="http://purl.org/dc/elements/1.1/"
   xmlns:cc="http://creativecommons.org/ns#"
   xmlns:rdf="http://www.w3.org/1999/02/22-rdf-syntax-ns#"
   xmlns:svg="http://www.w3.org/2000/svg"
   xmlns="http://www.w3.org/2000/svg"
   xmlns:xlink="http://www.w3.org/1999/xlink"
   xmlns:sodipodi="http://sodipodi.sourceforge.net/DTD/sodipodi-0.dtd"
   xmlns:inkscape="http://www.inkscape.org/namespaces/inkscape"
   width="128"
   height="128"
   viewBox="0 0 33.866666 33.866668"
   version="1.1"
   id="svg924"
   inkscape:version="0.92.3 (2405546, 2018-03-11)"
   sodipodi:docname="marker.svg"
   inkscape:export-filename="C:\Users\muhaimin.azhim\Documents\src\tomman\public\img\mcore\sto.png"
   inkscape:export-xdpi="58.5933"
   inkscape:export-ydpi="58.5933">
  <defs
     id="defs918">
    <linearGradient
       id="linearGradient886"
       inkscape:collect="always">
      <stop
         id="stop882"
         offset="0"
         style="stop-color:#d7d7d7;stop-opacity:1" />
      <stop
         id="stop884"
         offset="1"
         style="stop-color:#cccccc;stop-opacity:0;" />
    </linearGradient>
    <radialGradient
       inkscape:collect="always"
       xlink:href="#linearGradient886"
       id="radialGradient852"
       cx="1.4365736"
       cy="288.18008"
       fx="1.4365736"
       fy="288.18008"
       r="3.1738257"
       gradientTransform="matrix(1,0,0,0.33684209,15.534783,192.89247)"
       gradientUnits="userSpaceOnUse" />
    <radialGradient
       inkscape:collect="always"
       xlink:href="#linearGradient886"
       id="radialGradient852-8"
       cx="1.4365736"
       cy="288.18008"
       fx="1.4365736"
       fy="288.18008"
       r="3.1738257"
       gradientTransform="matrix(1,0,0,0.3368421,75.736158,192.89251)"
       gradientUnits="userSpaceOnUse" />
    <radialGradient
       inkscape:collect="always"
       xlink:href="#linearGradient886"
       id="radialGradient852-8-3"
       cx="1.4365736"
       cy="288.18008"
       fx="1.4365736"
       fy="288.18008"
       r="3.1738257"
       gradientTransform="matrix(1,0,0,0.3368421,50.560446,192.89252)"
       gradientUnits="userSpaceOnUse" />
    <radialGradient
       inkscape:collect="always"
       xlink:href="#linearGradient886"
       id="radialGradient852-8-6"
       cx="1.4365736"
       cy="288.18008"
       fx="1.4365736"
       fy="288.18008"
       r="3.1738257"
       gradientTransform="matrix(1,0,0,0.3368421,101.32857,192.8925)"
       gradientUnits="userSpaceOnUse" />
  </defs>
  <sodipodi:namedview
     id="base"
     pagecolor="#ffffff"
     bordercolor="#666666"
     borderopacity="1.0"
     inkscape:pageopacity="0.0"
     inkscape:pageshadow="2"
     inkscape:zoom="3.959798"
     inkscape:cx="140.03584"
     inkscape:cy="66.839828"
     inkscape:document-units="mm"
     inkscape:current-layer="layer1"
     showgrid="false"
     units="px"
     inkscape:window-width="1920"
     inkscape:window-height="1001"
     inkscape:window-x="-9"
     inkscape:window-y="-9"
     inkscape:window-maximized="1"
     showguides="true"
     inkscape:guide-bbox="true"
     inkscape:object-paths="true"
     inkscape:snap-object-midpoints="true">
    <sodipodi:guide
       position="21.982919,26.673907"
       orientation="0,1"
       id="guide878"
       inkscape:locked="false" />
    <sodipodi:guide
       position="16.971356,7.0363569"
       orientation="0,1"
       id="guide880"
       inkscape:locked="false" />
  </sodipodi:namedview>
  <metadata
     id="metadata921">
    <rdf:RDF>
      <cc:Work
         rdf:about="">
        <dc:format>image/svg+xml</dc:format>
        <dc:type
           rdf:resource="http://purl.org/dc/dcmitype/StillImage" />
        <dc:title />
      </cc:Work>
    </rdf:RDF>
  </metadata>
  <g
     inkscape:label="Layer 1"
     inkscape:groupmode="layer"
     id="layer1"
     transform="translate(0,-263.13332)">
    <ellipse
       style="fill:url(#radialGradient852-8);fill-opacity:1;stroke:none;stroke-width:0.25;stroke-miterlimit:4;stroke-dasharray:none;stroke-dashoffset:0"
       id="path836-5"
       cx="77.172729"
       cy="289.96362"
       rx="3.1738257"
       ry="1.0690781"
       inkscape:export-filename="E:\0m\prj\yop\TOMMANv2\src\public\img\mcore\odp.png"
       inkscape:export-xdpi="58.593277"
       inkscape:export-ydpi="58.593277" />
    <ellipse
       style="fill:url(#radialGradient852);fill-opacity:1.0;stroke:none;stroke-width:0.25;stroke-miterlimit:4;stroke-dasharray:none;stroke-dashoffset:0"
       id="path836"
       cx="16.971355"
       cy="289.96362"
       rx="3.1738257"
       ry="1.0690781"
       inkscape:export-filename="E:\0m\prj\yop\TOMMANv2\src\public\img\mcore\sto.png"
       inkscape:export-xdpi="58.593277"
       inkscape:export-ydpi="58.593277" />
    <path
       style="fill:#3771c8;fill-opacity:1;stroke:none;stroke-width:0.79375011;stroke-miterlimit:4;stroke-dasharray:none"
       d="m 8.5124411,270.32608 v 13.74385 h 4.6824019 l 3.776513,5.8937 3.77703,-5.8937 h 4.682403 v -13.74385 z"
       id="rect4643"
       inkscape:connector-curvature="0"
       sodipodi:nodetypes="cccccccc"
       inkscape:export-xdpi="58.593277"
       inkscape:export-ydpi="58.593277"
       inkscape:export-filename="E:\0m\prj\yop\TOMMANv2\src\public\img\mcore\sto.png" />
    <text
       id="text854"
       y="279.72241"
       x="9.8055363"
       style="font-style:normal;font-variant:normal;font-weight:normal;font-stretch:normal;font-size:7.13464165px;line-height:1.25;font-family:Strasua;-inkscape-font-specification:Strasua;letter-spacing:0px;word-spacing:0px;fill:#ffffff;fill-opacity:1;stroke:none;stroke-width:0.14606938"
       xml:space="preserve"
       inkscape:export-xdpi="58.593277"
       inkscape:export-ydpi="58.593277"
       inkscape:export-filename="E:\0m\prj\yop\TOMMANv2\src\public\img\mcore\sto.png"><tspan
         style="font-style:normal;font-variant:normal;font-weight:normal;font-stretch:normal;font-family:Strasua;-inkscape-font-specification:Strasua;fill:#ffffff;stroke-width:0.14606938"
         y="279.72241"
         x="9.8055363"
         id="tspan852"
         sodipodi:role="line">STO</tspan></text>
    <path
       style="fill:#00b050;fill-opacity:1;stroke:none;stroke-width:0.79375011;stroke-miterlimit:4;stroke-dasharray:none"
       d="m 68.713553,270.32608 v 13.74385 h 4.682402 l 3.776513,5.8937 3.77703,-5.8937 h 4.682403 v -13.74385 z"
       id="rect4643-7"
       inkscape:connector-curvature="0"
       sodipodi:nodetypes="cccccccc"
       inkscape:export-xdpi="58.593277"
       inkscape:export-ydpi="58.593277"
       inkscape:export-filename="E:\0m\prj\yop\TOMMANv2\src\public\img\mcore\odp.png" />
    <text
       id="text854-5"
       y="279.2547"
       x="70.698318"
       style="font-style:normal;font-variant:normal;font-weight:normal;font-stretch:normal;font-size:5.93535519px;line-height:1.25;font-family:Strasua;-inkscape-font-specification:Strasua;letter-spacing:0px;word-spacing:0px;fill:#ffffff;fill-opacity:1;stroke:none;stroke-width:0.14606938"
       xml:space="preserve"
       inkscape:export-xdpi="58.593277"
       inkscape:export-ydpi="58.593277"
       inkscape:export-filename="E:\0m\prj\yop\TOMMANv2\src\public\img\mcore\odp.png"><tspan
         style="font-style:normal;font-variant:normal;font-weight:normal;font-stretch:normal;font-family:Strasua;-inkscape-font-specification:Strasua;fill:#ffffff;stroke-width:0.14606938"
         y="279.2547"
         x="70.698318"
         id="tspan852-9"
         sodipodi:role="line">ODP</tspan></text>
    <ellipse
       style="fill:url(#radialGradient852-8-3);fill-opacity:1;stroke:none;stroke-width:0.25;stroke-miterlimit:4;stroke-dasharray:none;stroke-dashoffset:0"
       id="path836-5-9"
       cx="51.997017"
       cy="289.96362"
       rx="3.1738257"
       ry="1.0690781"
       inkscape:export-filename="E:\0m\prj\yop\TOMMANv2\src\public\img\mcore\odc.png"
       inkscape:export-xdpi="58.593277"
       inkscape:export-ydpi="58.593277" />
    <path
       style="fill:#ff9900;fill-opacity:1;stroke:none;stroke-width:0.79375011;stroke-miterlimit:4;stroke-dasharray:none"
       d="m 43.537843,270.32609 v 13.74385 h 4.682402 l 3.776513,5.8937 3.77703,-5.8937 h 4.682403 v -13.74385 z"
       id="rect4643-7-3"
       inkscape:connector-curvature="0"
       sodipodi:nodetypes="cccccccc"
       inkscape:export-xdpi="58.593277"
       inkscape:export-ydpi="58.593277"
       inkscape:export-filename="E:\0m\prj\yop\TOMMANv2\src\public\img\mcore\odc.png" />
    <text
       id="text854-5-6"
       y="279.2547"
       x="45.299454"
       style="font-style:normal;font-variant:normal;font-weight:normal;font-stretch:normal;font-size:5.93535519px;line-height:1.25;font-family:Strasua;-inkscape-font-specification:Strasua;letter-spacing:0px;word-spacing:0px;fill:#ffffff;fill-opacity:1;stroke:none;stroke-width:0.14606938"
       xml:space="preserve"
       inkscape:export-xdpi="58.593277"
       inkscape:export-ydpi="58.593277"
       inkscape:export-filename="E:\0m\prj\yop\TOMMANv2\src\public\img\mcore\odc.png"><tspan
         style="font-style:normal;font-variant:normal;font-weight:normal;font-stretch:normal;font-family:Strasua;-inkscape-font-specification:Strasua;fill:#ffffff;stroke-width:0.14606938"
         y="279.2547"
         x="45.299454"
         id="tspan852-9-2"
         sodipodi:role="line">ODC</tspan></text>
    <ellipse
       style="fill:url(#radialGradient852-8-6);fill-opacity:1;stroke:none;stroke-width:0.25;stroke-miterlimit:4;stroke-dasharray:none;stroke-dashoffset:0"
       id="path836-5-8"
       cx="102.76514"
       cy="289.96362"
       rx="3.1738257"
       ry="1.0690781"
       inkscape:export-filename="E:\0m\prj\yop\TOMMANv2\src\public\img\mcore\pelanggan.png"
       inkscape:export-xdpi="58.593277"
       inkscape:export-ydpi="58.593277" />
    <path
       style="fill:#993300;fill-opacity:1;stroke:none;stroke-width:0.79375011;stroke-miterlimit:4;stroke-dasharray:none"
       d="m 94.305958,270.32607 v 13.74385 h 4.682403 l 3.776509,5.8937 3.77703,-5.8937 h 4.68241 v -13.74385 z"
       id="rect4643-7-7"
       inkscape:connector-curvature="0"
       sodipodi:nodetypes="cccccccc"
       inkscape:export-xdpi="58.593277"
       inkscape:export-ydpi="58.593277"
       inkscape:export-filename="E:\0m\prj\yop\TOMMANv2\src\public\img\mcore\pelanggan.png" />
    <text
       id="text854-5-5"
       y="279.2547"
       x="96.221176"
       style="font-style:normal;font-variant:normal;font-weight:normal;font-stretch:normal;font-size:5.93535519px;line-height:1.25;font-family:Strasua;-inkscape-font-specification:Strasua;letter-spacing:0px;word-spacing:0px;fill:#ffffff;fill-opacity:1;stroke:none;stroke-width:0.14606938"
       xml:space="preserve"
       inkscape:export-xdpi="58.593277"
       inkscape:export-ydpi="58.593277"
       inkscape:export-filename="E:\0m\prj\yop\TOMMANv2\src\public\img\mcore\pelanggan.png"><tspan
         style="font-style:normal;font-variant:normal;font-weight:normal;font-stretch:normal;font-family:Strasua;-inkscape-font-specification:Strasua;fill:#ffffff;stroke-width:0.14606938"
         y="279.2547"
         x="96.221176"
         id="tspan852-9-22"
         sodipodi:role="line">ONT</tspan></text>
  </g>
</svg>
